<?xml version="1.0" encoding="UTF-8"?>
<svg width="1282" height="848" version="1.1" xmlns="http://www.w3.org/2000/svg">
	<link rel="stylesheet" href="../default.css" xmlns="http://www.w3.org/1999/xhtml"/>
	<g id="laboratory-b3">
		<rect class="background" x="0" y="0" width="1282" height="848"/>
		<g id="passage-laboratory-b3" class="area">
			<polygon class="stage" points="548,50 588,50 588,150 692,150 692,130 740,130 740,336 548,336"/>
			<g class="stairs">
				<g class="enabled">
					<polyline points="548,95 588,95 "/>
					<polyline points="548,105 588,105 "/>
					<polyline points="548,115 588,115 "/>
					<polyline points="548,125 588,125 "/>
					<polyline points="548,135 588,135 "/>
					<polyline points="548,145 588,145 "/>
					<polyline class="wall" points="548,150 548,50 588,50 588,150"/>
				</g>
			</g>
		</g>
		<g id="computer-room" class="area">
			<polygon class="stage" points="588,82 740,82 740,130 692,130 692,150 588,150"/>
			<g class="door">
				<g class="enabled">
					<polyline points="696,130 736,130"/>
				</g>
			</g>
		</g>
		<g id="elevator-passage" class="area">
			<polygon class="stage" points="808,196 916,196 916,242 856,242 856,458 808,458 808,336 740,336 740,290 808,290"/>
			<g class="door">
				<g class="disabled">
					<polyline points="740,293 740,333"/>
				</g>
			</g>
			<g class="elevator">
				<g class="disabled">
					<polygon points="868,196 916,196 916,242 868,242"/>
					<polyline class="wall" points="868,196 916,196 916,242 868,242"/>
				</g>
			</g>
		</g>
		<g id="lounge-laboratory" class="area">
			<polygon class="stage" points="856,242 916,242 916,330 856,330"/>
			<g class="door">
				<g class="enabled">
					<polyline points="856,303 856,323"/>
				</g>
			</g>
		</g>
		<g id="power-room-passage-1" class="area">
			<polygon class="stage" points="740,458 926,458 926,570 876,570 876,602 740,602"/>
			<polygon class="blank" points="740,490 780,490 780,570 740,570"/>
			<polygon class="blank" points="876,490 900,490 900,546 876,546"/>
			<g class="door">
				<g class="enabled">
					<polyline points="812,458 852,458"/>
				</g>
			</g>
		</g>
		<g id="power-room-passage-2" class="area">
			<polygon class="stage" points="876,570 926,570 926,714 740,714 740,602 876,602"/>
			<polygon class="blank" points="804,490 856,490 856,602 876,602 876,570 900,570 900,626 780,626 780,682 740,682 740,602 804,602"/>
			<polygon class="blank" points="804,658 900,658 900,682 876,682 876,714 852,714 852,682 804,682"/>
			<g class="door">
				<g class="enabled">
					<polyline points="903,570 923,570"/>
				</g>
			</g>
		</g>
		<g id="power-room-passage-3" class="area">
			<polygon class="stage" points="740,714 926,714 926,806 740,806"/>
			<polygon class="blank" points="764,738 896,738 896,782 764,782"/>
			<g class="door">
				<g class="enabled">
					<polyline points="809,714 849,714"/>
				</g>
			</g>
		</g>
		<g id="mortuary-room" class="area">
			<polygon class="stage" points="596,196 692,196 692,290 646,290 646,266 596,266"/>
			<g class="door">
				<g class="enabled">
					<polyline points="649,290 689,290"/>
				</g>
			</g>
			<g class="arrow">
				<g class="enabled">
					<polyline points="669,280 669,300"/>
					<polygon points="664,300 674,300 669,310"/>
				</g>
			</g>
		</g>
		<g id="operating-room" class="area">
			<polygon class="stage" points="740,196 808,196 808,290 740,290"/>
			<g class="door">
				<g class="enabled">
					<polyline points="754,290 794,290"/>
				</g>
			</g>
			<g class="arrow">
				<g class="enabled">
					<polyline points="682,238 750,238"/>
					<polygon points="682,233 682,243 672,238"/>
				</g>
			</g>
		</g>
		<g id="ultraviolet-light-room-front-passage" class="area">
			<polygon class="stage" points="396,150 548,150 548,196 396,196"/>
			<g class="door">
				<g class="enabled">
					<polyline points="548,153 548,193"/>
				</g>
			</g>
		</g>
		<g id="ultraviolet-light-room" class="area">
			<polygon class="stage" points="452,196 548,196 548,274 452,274"/>
			<g class="door">
				<g class="enabled">
					<polyline points="510,196 530,196"/>
				</g>
			</g>
		</g>
		<g id="book-room-front-passage" class="area">
			<polygon class="stage" points="452,82 548,82 548,150 452,150"/>
			<g class="door">
				<g class="disabled">
					<polyline points="462,150 482,150"/>
				</g>
			</g>
		</g>
		<g id="cell-front-passage" class="area">
			<polygon class="stage" points="356,42 452,42 452,82 396,82 396,196 356,196"/>
			<g class="door">
				<g class="disabled">
					<polyline points="396,153 396,193"/>
				</g>
			</g>
		</g>
		<g id="cell" class="area">
			<polygon class="stage" points=" 396,82 452,82 452,150 396,150"/>
			<g class="door">
				<g class="disabled">
					<polyline points="414,82 434,82"/>
				</g>
			</g>
		</g>
	</g>
</svg>
