<?xml version="1.0" encoding="UTF-8"?>
<svg width="1282" height="848" version="1.1" xmlns="http://www.w3.org/2000/svg">
	<link rel="stylesheet" href="../default.css" xmlns="http://www.w3.org/1999/xhtml"/>
	<g id="laboratory-b1">
		<rect class="background" x="0" y="0" width="1282" height="848"/>
		<g id="elevator-passage" class="area">
			<polygon class="stage" points="816,564 972,564 972,760 876,760 876,712 816,712 816,564"/>
			<g class="ladder">
				<g class="enabled">
					<polyline points="846,712 846,682"/>
					<polyline points="866,712 866,682"/>
					<polyline points="846,692 866,692"/>
					<polyline points="846,702 866,702"/>
				</g>
			</g>
			<g class="elevator">
				<g class="enabled">
					<polygon points="924,712 876,712 876,760 924,760"/>
					<polyline class="wall" points="924,712 876,712 876,760 924,760"/>
				</g>
			</g>
		</g>
		<g id="emergency-passage" class="area">
			<polygon class="stage" points="268,132 432,132 432,324 552,324 552,612 816,612 816,664 500,664 500,376 372,376 372,184 268,184"/>
			<g class="door">
				<g class="disabled">
					<polyline points="816,618 816,658"/>
				</g>
			</g>
			<g class="elevator">
				<g class="disabled">
					<polygon points="320,132 268,132 268,184 320,184"/>
					<polyline class="wall" points="320,132 268,132 268,184 320,184"/>
				</g>
			</g>
		</g>
	</g>
</svg>
