<?xml version="1.0" encoding="UTF-8"?>
<svg width="1600" height="800" version="1.1" xmlns="http://www.w3.org/2000/svg">
	<link rel="stylesheet" href="../default.css" xmlns="http://www.w3.org/1999/xhtml"/>
	<g id="rpd-b1" class="map">
		<rect class="background" x="0" y="0" width="1600" height="800"/>
		<g id="passage-rpd-b1" class="area">
			<polygon class="stage" points="1118,237 1238,237 1238,263 1146,263 1146,415 1238,415 1238,375 1278,375 1278,447 958,447 958,543 926,543 926,415 1118,415"/>
			<g class="stairs">
				<g class="enabled">
					<polyline points="1160,237 1160,263"/>
					<polyline points="1170,237 1170,263"/>
					<polyline points="1180,237 1180,263"/>
					<polyline points="1190,237 1190,263"/>
					<polyline points="1200,237 1200,263"/>
					<polyline points="1210,237 1210,263"/>
					<polyline class="wall" points="1118,237 1238,237 1238,263 1146,263"/>
				</g>
			</g>
		</g>
		<g id="passage-to-sewer" class="area">
			<polygon class="stage" points="1118,205 1278,205 1278,375 1238,375 1238,237 1118,237"/>
			<g class="stairs">
				<g class="enabled">
					<polyline points="1125,213 1155,213"/>
					<polyline points="1125,229 1155,229"/>
					<polyline points="1135,213 1135,229"/>
					<polyline points="1145,213 1145,229"/>
				</g>
			</g>
			<g class="door">
				<g class="enabled">
					<polyline points="1246,375 1270,375"/>
				</g>
			</g>
		</g>
		<g id="power-room" class="area">
			<polygon class="stage" points="990,237 1118,237 1118,415 990,415"/>
			<g class="door">
				<g class="enabled">
					<polyline points="1038,415 1070,415"/>
				</g>
			</g>
		</g>
		<g id="car-park" class="area">
			<polygon class="stage" points="612,349 702,349 702,415 884,415 884,503 926,503 926,543 884,543 884,639 612,639"/>
			<g class="door">
				<g class="enabled">
					<polyline points="926,523 926,539"/>
				</g>
			</g>
		</g>
		<g id="cell-front-passage" class="area">
			<polygon class="stage" points="320,447 530,447 530,511 612,511 612,543 496,543 496,479 320,479"/>
			<g class="door">
				<g class="enabled">
					<polyline points="612,523 612,539"/>
				</g>
			</g>
		</g>
		<g id="cell" class="area">
			<polygon class="stage" points="320,479 432,479 432,595 320,595"/>
			<polyline class="wall" points="376,479 376,500"/>
			<polyline class="wall" points="376,516 376,566"/>
			<polyline class="wall" points="376,566 376,595"/>
			<polyline class="wall" points="376,537 432,537"/>
			<g class="door">
				<g class="enabled">
					<polyline points="324,479 356,479"/>
				</g>
			</g>
			<g class="arrow">
				<g class="disabled">
					<polyline points="366,566 386,566"/>
					<polygon points="386,561 396,566 386,571"/>
				</g>
			</g>
		</g>
		<g id="kennel" class="area">
			<polygon class="stage" points="490,367 612,367 612,511 530,511 530,447 490,447"/>
			<g class="stairs">
				<g class="disabled">
					<polyline points="669,354 699,354"/>
					<polyline points="669,374 699,374"/>
					<polyline points="679,354 679,374"/>
					<polyline points="689,354 689,374"/>
				</g>
			</g>
			<g class="door">
				<g class="enabled">
					<polyline points="501,447 517,447"/>
				</g>
			</g>
		</g>
		<g id="mortuary-room" class="area">
			<polygon class="stage" points="1150,447 1230,447 1230,565 1150,565"/>
			<g class="door">
				<g class="disabled">
					<polyline points="1174,447 1206,447"/>
				</g>
			</g>
		</g>
		<g id="weapon-room" class="area">
			<polygon class="stage" points="926,301 990,301 990,415 926,415"/>
			<g class="door">
				<g class="disabled">
					<polyline points="968,415 984,415"/>
				</g>
			</g>
		</g>
		<g id="hidden-passage" class="area">
			<polygon class="stage" points="798,159 926,159 926,269 958,269 958,237 990,237 990,301 894,301 894,191 798,191"/>
			<g class="elevator">
				<g class="enabled">
					<polygon points="958,269 958,237 990,237 990,269"/>
					<polyline class="wall" points="958,269 958,237 990,237 990,269"/>
				</g>
			</g>
		</g>
		<g id="hidden-room" class="area">
			<polygon class="stage" points="748,191 828,191 828,301 748,301"/>
			<g class="stairs">
				<g class="enabled">
					<polyline points="751,280 781,280"/>
					<polyline points="751,296 781,296"/>
					<polyline points="761,280 761,296"/>
					<polyline points="771,280 771,296"/>
				</g>
			</g>
			<g class="door">
				<g class="enabled">
					<polyline points="805,191 821,191"/>
				</g>
			</g>
		</g>
	</g>
</svg>
