<?xml version="1.0" encoding="UTF-8"?>
<svg width="1600" height="800" version="1.1" xmlns="http://www.w3.org/2000/svg">
	<link rel="stylesheet" href="../default.css" xmlns="http://www.w3.org/1999/xhtml"/>
	<g id="sewer-1f" class="map">
		<rect class="background" x="0" y="0" width="1600" height="800"/>
		<g id="east-passage-a" class="area">
			<polygon class="stage" points="1017,402 1137,402 1137,546 1113,546 1113,436 1017,436"/>
			<g class="ladder">
				<g class="enabled">
					<polyline points="1117,531 1117,561"/>
					<polyline points="1133,531 1133,561"/>
					<polyline points="1117,541 1133,541"/>
					<polyline points="1117,551 1133,551"/>
				</g>
			</g>
		</g>
		<g id="east-store-room" class="area">
			<polygon class="stage" points="1065,436 1113,436 1113,484 1065,484"/>
			<g class="door">
				<g class="enabled">
					<polyline points="1113,461 1113,475"/>
				</g>
			</g>
		</g>
		<g id="waterway" class="area">
			<polygon class="stage" points="461,486 555,486 555,510 483,510 483,676 531,676 531,700 461,700"/>
			<g class="ladder">
				<g class="enabled">
					<polyline points="516,680 546,680"/>
					<polyline points="516,696 546,696"/>
					<polyline points="526,680 526,696"/>
					<polyline points="536,680 536,696"/>
				</g>
			</g>
		</g>
		<g id="west-passage-a" class="area">
			<polygon class="stage" points="531,306 597,306 597,340 571,340 571,436 555,436 555,486 531,486"/>
			<g class="stairs">
				<g class="enabled">
					<polyline points="531,436 555,436"/>
					<polyline points="531,446 555,446"/>
					<polyline points="531,456 555,456"/>
					<polyline points="531,466 555,466"/>
					<polyline points="531,476 555,476"/>
					<polyline points="531,486 555,486"/>
					<polyline class="wall" points="531,306 531,486 461,486"/>
					<polyline class="wall" points="571,436 555,436 555,510"/>
				</g>
			</g>
		</g>
		<g id="west-store-room" class="area">
			<polygon class="stage" points="483,354 531,354 531,404 483,404"/>
			<g class="door">
				<g class="enabled">
					<polyline points="531,381 531,397"/>
				</g>
			</g>
		</g>
		<g id="h-shape-room" class="area">
			<polygon class="stage" points="531,178 689,178 689,306 531,306"/>
			<polygon class="blank" points="531,208 597,208 597,278 531,278"/>
			<polygon class="blank" points="625,208 689,208 689,278 625,278"/>
			<g class="door">
				<g class="enabled">
					<polyline points="538,306 554,306"/>
				</g>
			</g>
		</g>
		<g id="west-passage-b" class="area">
			<polygon class="stage" points="597,306 689,306 689,340 597,340"/>
			<g class="arrow">
				<g class="disabled">
					<polyline points="587,323 607,323"/>
					<polygon points="607,318 617,323 607,328"/>
				</g>
			</g>
		</g>
		<g id="facility" class="area">
			<polygon class="stage" points="689,178 871,178 871,308 1017,308 1017,322 985,340 689,340"/>
			<polygon class="blank" points="689,178 843,178 843,244 689,244"/>
			<polygon class="blank" points="727,274 851,274 851,340 727,340"/>
			<g class="door">
				<g class="enabled">
					<polyline points="689,315 689,331"/>
				</g>
			</g>
		</g>
		<g id="east-passage-b" class="area">
			<polygon class="stage" points="1001,308 1017,308 1017,436 985,436 985,340"/>
			<g class="elevator">
				<g class="enabled">
					<polygon points="985,308 1017,308 1017,340 985,340"/>
					<polyline class="wall" points="871,308 1017,308 1017,436"/>
				</g>
			</g>
			<g class="arrow">
				<g class="disabled">
					<polyline points="1007,410 1027,410"/>
					<polygon points="1007,405 1007,415 997,410"/>
				</g>
			</g>
		</g>
		<g id="center" class="area">
			<polygon class="stage" points="751,98 871,98 871,178 751,178"/>
			<g class="door">
				<g class="enabled">
					<polyline points="853,178 869,178"/>
				</g>
			</g>
		</g>
		<g id="exit-a" class="area">
			<polygon class="stage" points="531,98 691,98 691,120 723,120 723,178 531,178"/>
			<g class="door">
				<g class="disabled">
					<polyline points="538,178 554,178"/>
				</g>
				<g class="enabled">
					<polyline points="694,120 720,120"/>
				</g>
			</g>
			<g class="stairs">
				<g class="enabled">
					<polyline points="561,98 561,120"/>
					<polyline points="571,98 571,120"/>
					<polyline points="581,98 581,120"/>
					<polyline points="591,98 591,120"/>
					<polyline points="601,98 601,120"/>
					<polyline points="611,98 611,120"/>
					<polyline class="wall" points="531,98 691,98"/>
					<polyline class="wall" points="561,178 561,120 616,120"/>
				</g>
			</g>
		</g>
		<g id="iron-bridge" class="area">
			<polygon class="stage" points="658,453 759,453 759,644 727,644 727,482 658,482"/>
			<g class="ladder">
				<g class="enabled">
					<polyline points="735,629 735,659"/>
					<polyline points="751,629 751,659"/>
					<polyline points="735,639 751,639"/>
					<polyline points="735,649 751,649"/>
				</g>
			</g>
		</g>
		<g id="exit-b" class="area">
			<polygon class="stage" points="785,388 853,388 853,452 658,452 658,420 785,420"/>
			<polyline class="wall" points="785,420 823,420"/>
			<g class="door">
				<g class="enabled">
					<polyline points="785,391 785,417"/>
				</g>
			</g>
			<g class="ladder">
				<g class="enabled">
					<polyline points="663,438 663,468"/>
					<polyline points="679,438 679,468"/>
					<polyline points="663,448 679,448"/>
					<polyline points="663,458 679,458"/>
				</g>
			</g>
		</g>
	</g>
</svg>
